<svg width="200" height="71" viewBox="0 0 200 71" fill="none" xmlns="http://www.w3.org/2000/svg">
<path d="M15.4191 11.6222C11.5595 13.2281 7.31652 17.7649 5.97645 23.4596C4.27935 30.675 11.3418 33.7261 11.921 32.7257C12.6028 31.5501 10.6555 31.1526 10.2547 27.409C9.73664 22.5737 11.9981 17.1708 14.8443 14.8002C15.3733 14.3598 15.3481 14.9728 15.3481 16.1067C15.3481 18.1343 15.2354 36.3368 15.2354 40.1357C15.2354 45.2761 15.0218 46.8993 14.6382 48.5032C14.2495 50.1287 13.6246 51.227 14.0981 51.6501C14.6272 52.1233 16.8859 50.9976 18.1935 49.1836C19.7615 47.0079 20.3104 44.395 20.409 41.5574C20.528 38.1368 20.5229 32.7091 20.528 29.6131C20.5328 26.7736 20.5761 18.4591 20.4779 13.4607C20.4539 12.2347 17.0332 10.9484 15.4189 11.6207L15.4191 11.6222ZM152.473 35.6787C152.349 38.3511 151.753 40.4398 151.015 41.9132C149.585 44.7655 146.618 45.6512 145.358 41.5509C144.672 39.3158 144.64 35.583 145.133 32.464C145.636 29.2866 147.039 26.887 149.362 27.1034C151.653 27.3173 152.725 30.2521 152.473 35.6786V35.6787ZM113.846 52.2586C113.814 56.6989 113.111 60.5921 111.604 61.7228C109.465 63.3261 106.591 62.1235 107.187 58.8834C107.713 56.0162 110.203 53.088 113.852 49.5103C113.852 49.5103 113.859 50.3262 113.846 52.2586H113.846ZM113.262 35.6528C113.131 38.0868 112.496 40.532 111.803 41.9135C110.374 44.7658 107.385 45.6575 106.147 41.5512C105.3 38.7456 105.503 35.1145 105.922 32.8265C106.465 29.858 107.783 27.1041 110.15 27.1041C112.451 27.1041 113.586 29.6135 113.262 35.653V35.6528ZM90.8846 35.6156C90.7443 38.1934 90.2383 40.3484 89.4264 41.9135C87.9575 44.7462 85.0514 45.6446 83.7697 41.5512C82.8458 38.5996 83.1603 34.575 83.5447 32.4009C84.1151 29.1747 85.5434 26.8873 87.7731 27.1041C90.0635 27.3265 91.1769 30.2524 90.8846 35.6158V35.6156ZM193.433 38.6266C192.873 38.6266 192.618 39.2003 192.406 40.1659C191.673 43.5234 190.902 44.2815 189.909 44.2815C188.798 44.2815 187.801 42.619 187.544 39.291C187.343 36.6742 187.375 31.8564 187.633 27.064C187.686 26.0794 187.412 25.1051 184.755 24.1457C183.612 23.733 181.95 23.1254 181.123 25.1108C178.785 30.72 177.87 35.1732 177.655 36.9822C177.644 37.0759 177.528 37.095 177.508 36.8762C177.371 35.4273 177.064 32.7944 177.026 27.2625C177.019 26.1832 176.789 25.2644 175.59 24.5123C174.813 24.0242 172.451 23.1611 171.601 24.188C170.864 25.0278 170.011 27.288 169.124 29.9672C168.404 32.1448 167.902 33.6178 167.902 33.6178C167.902 33.6178 167.912 27.7423 167.92 25.5137C167.924 24.6729 167.344 24.3927 167.169 24.3419C166.381 24.1148 164.83 23.7353 164.171 23.7353C163.359 23.7353 163.16 24.1867 163.16 24.8445C163.16 24.9307 163.032 32.5801 163.032 37.929C163.032 38.1614 163.032 38.4149 163.034 38.6841C162.585 41.1425 161.127 44.4798 159.542 44.4798C157.955 44.4798 157.206 43.0846 157.206 36.7079C157.206 32.9879 157.319 31.3703 157.374 28.6798C157.406 27.1301 157.468 25.94 157.464 25.67C157.453 24.8418 156.012 24.4244 155.342 24.2701C154.668 24.1146 154.083 24.0543 153.626 24.0802C152.979 24.1165 152.521 24.5383 152.521 25.1185C152.521 25.4296 152.525 26.0211 152.525 26.0211C151.692 24.7197 150.351 23.8139 149.46 23.5514C147.058 22.8425 144.553 23.4707 142.662 26.0997C141.16 28.1886 140.255 30.5545 139.898 33.9536C139.638 36.4386 139.723 38.9586 140.186 41.0898C139.626 43.4946 138.587 44.4798 137.45 44.4798C135.798 44.4798 134.601 41.8004 134.74 37.1666C134.832 34.1188 135.445 31.9799 136.116 28.8855C136.402 27.5664 136.17 26.8758 135.587 26.2139C135.053 25.6069 133.914 25.2968 132.277 25.6782C131.11 25.9501 129.443 26.2426 127.918 26.4672C127.918 26.4672 128.01 26.1022 128.085 25.4586C128.482 22.0834 124.792 22.3573 123.615 23.4353C122.912 24.0789 122.434 24.838 122.252 26.2029C121.965 28.3687 123.742 29.3903 123.742 29.3903C123.159 32.0433 121.729 35.509 120.254 38.0147C119.463 39.3571 118.859 40.3519 118.078 41.4094C118.075 41.0156 118.073 40.6219 118.072 40.23C118.054 34.6523 118.129 30.2625 118.162 28.6803C118.194 27.1306 118.256 25.9721 118.253 25.7021C118.244 25.0963 117.888 24.8676 117.148 24.578C116.493 24.3218 115.72 24.1445 114.917 24.0826C113.904 24.0041 113.293 24.5382 113.309 25.1698C113.312 25.2891 113.312 26.0214 113.312 26.0214C112.479 24.7199 111.139 23.8142 110.248 23.5516C107.846 22.843 105.34 23.4712 103.45 26.0999C101.948 28.1888 100.965 31.1201 100.686 33.928C100.426 36.545 100.474 38.7689 100.828 40.6423C100.446 42.5183 99.3484 44.48 98.1071 44.48C96.5201 44.48 95.6171 43.0848 95.6171 36.7081C95.6171 32.9881 95.7294 31.3706 95.7846 28.6803C95.8167 27.1306 95.8786 25.9403 95.8751 25.6705C95.8634 24.8424 94.4227 24.4249 93.7523 24.2704C93.0509 24.1091 92.4453 24.0498 91.9803 24.0839C91.3668 24.1293 90.9354 24.6755 90.9354 25.0828V26.0214C90.1022 24.7199 88.7622 23.8142 87.8706 23.5516C85.4692 22.843 82.9773 23.4813 81.0732 26.0999C79.8315 27.8074 78.8263 29.7003 78.309 33.8907C78.1595 35.1017 78.0934 36.2357 78.102 37.2956C77.6069 40.3055 75.42 43.7746 73.6311 43.7746C72.5843 43.7746 71.5874 41.7564 71.5874 37.4552C71.5874 31.7258 71.9441 23.5684 72.0045 22.7822C72.0045 22.7822 74.2646 22.744 74.7024 22.7389C75.8297 22.7266 76.8508 22.7531 78.3524 22.6768C79.1056 22.6386 79.8312 19.9519 79.0539 19.6193C78.7016 19.4688 76.2116 19.337 75.2245 19.3161C74.3945 19.2974 72.0838 19.1275 72.0838 19.1275C72.0838 19.1275 72.2911 13.7129 72.3393 13.141C72.3803 12.6642 71.7597 12.4188 71.4039 12.2699C70.5387 11.9061 69.7646 11.7319 68.847 11.5439C67.5793 11.284 67.0041 11.5382 66.8918 12.6018C66.7226 14.2159 66.635 18.9435 66.635 18.9435C65.7047 18.9435 62.5269 18.7628 61.5963 18.7628C60.7317 18.7628 59.7985 22.4588 60.9939 22.5042C62.3692 22.5572 64.7659 22.603 66.3547 22.6506C66.3547 22.6506 66.284 30.9424 66.284 33.5024C66.284 33.7747 66.2864 34.037 66.2868 34.2915C65.4124 38.822 62.3324 41.2693 62.3324 41.2693C62.9938 38.2721 61.6426 36.0213 59.2088 34.1161C58.3122 33.414 56.542 32.0848 54.5615 30.6283C54.5615 30.6283 55.7085 29.5045 56.7258 27.2436C57.4466 25.6422 57.4777 23.8095 55.7085 23.4053C52.7853 22.7371 50.375 24.8711 49.656 27.1493C49.099 28.9142 49.3961 30.2238 50.4873 31.5842C50.567 31.6836 50.6533 31.7852 50.7425 31.8874C50.0826 33.1517 49.1761 34.8538 48.4084 36.1737C46.2773 39.8385 44.6675 42.7373 43.4509 42.7373C42.4784 42.7373 42.4914 39.7943 42.4914 37.0388C42.4914 34.6634 42.6679 31.092 42.8088 27.3944C42.8554 26.1716 42.2403 25.475 41.2091 24.844C40.5826 24.4607 39.2454 23.7069 38.4709 23.7069C37.3117 23.7069 33.9673 23.8637 30.8073 32.9497C30.4091 34.0949 29.6267 36.1816 29.6267 36.1816L29.694 25.2554C29.694 24.9992 29.5568 24.7515 29.2425 24.5821C28.71 24.2947 27.2878 23.7069 26.0231 23.7069C25.4206 23.7069 25.1199 23.9855 25.1199 24.5408L25.0096 41.6349C25.0096 42.9338 25.0436 44.449 25.1728 45.1117C25.3015 45.7752 25.5101 46.315 25.7683 46.6362C26.0262 46.9567 26.3245 47.2012 26.8164 47.3022C27.2741 47.3958 29.7807 47.7158 29.911 46.7636C30.0671 45.6225 30.0731 44.3883 31.3893 39.7852C33.4384 32.6187 36.11 29.1221 37.3659 27.8803C37.5855 27.6633 37.8362 27.6503 37.8242 28.0055C37.7705 29.5767 37.582 33.5027 37.4551 36.8382C37.1149 45.7641 38.7485 47.4186 41.083 47.4186C42.8689 47.4186 45.3866 45.6546 48.0854 41.1895C49.7679 38.4068 51.4016 35.6784 52.5753 33.7119C53.3933 34.4646 54.3112 35.2746 55.2285 36.14C57.3601 38.151 58.06 40.0619 57.5956 41.8747C57.2405 43.2606 55.903 44.6888 53.5224 43.3006C52.8286 42.8956 52.5325 42.5827 51.8348 42.1262C51.46 41.8809 50.8877 41.8076 50.5446 42.0645C49.6534 42.7325 49.1436 43.5821 48.8526 44.634C48.5695 45.6575 49.6007 46.1985 50.6697 46.6718C51.5901 47.0791 53.5685 47.4481 54.8301 47.4902C59.746 47.6536 63.684 45.1309 66.4254 38.6235C66.9161 44.2434 69.0045 47.4236 72.6331 47.4236C75.059 47.4236 77.4912 44.3067 78.5548 41.2405C78.8601 42.4904 79.3121 43.5773 79.8958 44.4964C82.6918 48.8998 88.1158 47.952 90.8404 44.2129C91.6827 43.0575 91.811 42.6423 91.811 42.6423C92.2083 46.173 95.0687 47.4066 96.7065 47.4066C98.5408 47.4066 100.435 46.5447 101.762 43.5743C101.918 43.8966 102.087 44.2045 102.273 44.4963C105.069 48.8997 110.493 47.952 113.217 44.2128C113.346 44.0374 113.457 43.8783 113.555 43.7355L113.635 46.0546C113.635 46.0546 112.08 47.4719 111.126 48.3413C106.927 52.1708 103.734 55.0762 103.499 58.4595C103.198 62.7736 106.718 64.377 109.381 64.5871C112.209 64.8102 114.63 63.2573 116.119 61.0841C117.428 59.1713 118.285 55.0544 118.222 50.9883C118.197 49.3601 118.156 47.2898 118.124 45.0706C119.6 43.3669 121.262 41.2137 122.794 38.6932C124.462 35.9464 126.25 32.2577 127.166 29.387C127.166 29.387 128.72 29.4003 130.378 29.2924C130.908 29.258 131.061 29.3656 130.962 29.7521C130.844 30.219 128.868 37.7965 130.671 42.8445C131.906 46.3001 134.689 47.4119 136.34 47.4119C138.271 47.4119 140.119 45.9618 141.109 43.8086C141.229 44.0487 141.353 44.2809 141.49 44.4954C144.286 48.8988 149.691 47.9453 152.434 44.2118C153.053 43.3695 153.405 42.6413 153.405 42.6413C153.994 46.2953 156.852 47.4242 158.49 47.4242C160.196 47.4242 161.814 46.7291 163.128 43.6401C163.183 45.0002 163.269 46.1123 163.405 46.4629C163.489 46.6774 163.973 46.9465 164.326 47.0765C165.886 47.6517 167.478 47.3797 168.066 47.2614C168.474 47.1794 168.792 46.8541 168.836 46.0142C168.95 43.8089 168.88 40.1037 169.553 37.3501C170.682 32.7287 171.735 30.9361 172.234 30.0486C172.514 29.5514 172.829 29.4694 172.841 29.9956C172.864 31.0604 172.918 34.1873 173.355 38.3884C173.676 41.4782 174.105 43.3044 174.435 43.8824C175.376 45.5353 176.538 45.6136 177.485 45.6136C178.087 45.6136 179.346 45.4482 179.234 44.3963C179.179 43.8837 179.275 40.7151 180.388 36.1622C181.115 33.189 182.327 30.5026 182.764 29.5204C182.925 29.1583 183 29.4438 182.997 29.4994C182.905 31.547 182.699 38.2443 183.538 41.9072C184.675 46.8693 187.966 47.4245 189.113 47.4245C191.561 47.4245 193.563 45.5735 194.238 40.7029C194.4 39.5308 194.16 38.6258 193.439 38.6258" fill="#1A1919"/>
</svg>
