<svg viewBox="0 0 11 18" xmlns="http://www.w3.org/2000/svg">
<path fill-rule="evenodd" clip-rule="evenodd" d="M7.58564 9.00008L0.292742 16.293L1.70696 17.7072L10.4141 9.00008L1.70696 0.292969L0.292742 1.70718L7.58564 9.00008Z"/>
</svg>
