<svg viewBox="0 0 52 50" fill="none" xmlns="http://www.w3.org/2000/svg">
<path d="M26 0C14.9766 0 6 8.97656 6 20C6 23.75 7.07031 27.25 8.875 30.25L0.625 38.4375L0 39V42H8V50H10.9375L11.5625 49.4375L21.4375 39.4375C22.9141 39.7812 24.4219 40 26 40C27.5781 40 29.0859 39.7812 30.5625 39.4375L40.4375 49.4375L41.0625 50H44V42H52V39L51.375 38.4375L43.125 30.25C44.9297 27.25 46 23.75 46 20C46 8.97656 37.0234 0 26 0ZM26 4C34.8594 4 42 11.1406 42 20C42 28.8594 34.8594 36 26 36C17.1406 36 10 28.8594 10 20C10 11.1406 17.1406 4 26 4ZM24 10C24 12.2344 22.2344 14 20 14V18C21.4688 18 22.8125 17.5703 24 16.875V26H20V30H32V26H28V10H24ZM11.3125 33.5C12.9844 35.3203 15.0078 36.8359 17.25 37.9375L12 43.1875V38H6.75L11.3125 33.5ZM40.6875 33.5L45.25 38H40V43.1875L34.75 37.9375C36.9922 36.8359 39.0156 35.3203 40.6875 33.5Z" fill="#1A1919"/>
</svg>
