<svg viewBox="0 0 46 46" fill="none" xmlns="http://www.w3.org/2000/svg">
<path d="M1.4375 5.75V35.9375H5.97461C6.61475 38.4082 8.83838 40.25 11.5 40.25C14.1616 40.25 16.3853 38.4082 17.0254 35.9375H28.9746C29.6147 38.4082 31.8384 40.25 34.5 40.25C37.1616 40.25 39.3853 38.4082 40.0254 35.9375H44.5625V20.9785L44.1582 20.5293L35.5332 11.9043L35.084 11.5H27.3125V5.75H1.4375ZM4.3125 8.625H24.4375V33.0625H17.0254C16.3853 30.5918 14.1616 28.75 11.5 28.75C8.83838 28.75 6.61475 30.5918 5.97461 33.0625H4.3125V8.625ZM27.3125 14.375H33.8711L41.6875 22.1914V33.0625H40.0254C39.3853 30.5918 37.1616 28.75 34.5 28.75C31.8384 28.75 29.6147 30.5918 28.9746 33.0625H27.3125V14.375ZM5.75 15.8125V23H7.1875V20.125H9.07422V18.6875H7.1875V17.25H9.07422V15.8125H5.75ZM10.0625 15.8125V23H11.5V20.5742L12.7578 23H14.375L12.8027 20.0352L14.1055 18.6426V17.1602L12.8027 15.8125H10.0625ZM15.3633 15.8125V23H18.6875V21.5625H16.8008V20.125H18.6875V18.6875H16.8008V17.25H18.6875V15.8125H15.3633ZM19.6758 15.8125V23H23V21.5625H21.1133V20.125H23V18.6875H21.1133V17.25H23V15.8125H19.6758ZM11.5 17.25H12.2188L12.668 17.7441V18.1035L12.2188 18.5977H11.5V17.25ZM11.5 31.625C13.106 31.625 14.375 32.894 14.375 34.5C14.375 36.106 13.106 37.375 11.5 37.375C9.89404 37.375 8.625 36.106 8.625 34.5C8.625 32.894 9.89404 31.625 11.5 31.625ZM34.5 31.625C36.106 31.625 37.375 32.894 37.375 34.5C37.375 36.106 36.106 37.375 34.5 37.375C32.894 37.375 31.625 36.106 31.625 34.5C31.625 32.894 32.894 31.625 34.5 31.625Z" fill="#1A1919" fill-opacity="0.7"/>
</svg>
