<svg width="39" height="24" viewBox="0 0 39 24" fill="none" xmlns="http://www.w3.org/2000/svg">
<path d="M31.4135 1.03341C33.0565 1.04885 34.4705 1.01487 36.1808 1.00715C37.2948 1.00252 37.7618 1.80097 37.2266 2.7832C35.4965 5.99 33.5061 9.04676 31.2757 11.9221C31.095 12.1671 31.0107 12.4709 31.039 12.7749C31.0672 13.0789 31.2061 13.3616 31.4288 13.5684C33.7753 15.6889 35.3287 17.6981 37.1838 20.1167C38.4722 21.7962 38.179 22.9506 36.6999 22.9668C35.1213 22.9838 33.5418 23.0108 31.9632 22.9954C31.6298 22.9914 31.3012 22.915 30.9998 22.7712C30.6985 22.6274 30.4314 22.4196 30.2169 22.1622C28.5846 20.2 26.7545 18.4143 24.7559 16.8341C24.2154 16.4063 22.9951 16.0619 22.9951 17.3476C22.9951 18.6333 22.9813 19.9429 22.9805 21.241C22.9791 21.7041 22.7966 22.148 22.4727 22.4762C22.1487 22.8044 21.7095 22.9904 21.2503 22.9939C10.7479 23.1483 3.57513 12.9468 1.04562 2.80251C0.821297 1.90213 1.44983 1.02105 2.37084 1.01951C3.95178 1.01951 5.53349 1.01101 7.1175 1.01487C7.3463 1.01603 7.56941 1.08702 7.75744 1.21851C7.94548 1.35 8.08963 1.53583 8.17095 1.75155C10.1814 7.08587 11.3466 10.3229 15.0827 13.2426C15.1596 13.3014 15.2512 13.3376 15.3473 13.3471C15.4433 13.3566 15.5401 13.339 15.6269 13.2964C15.7136 13.2537 15.787 13.1877 15.8388 13.1055C15.8906 13.0234 15.9188 12.9283 15.9203 12.831C15.9677 10.136 16.0154 7.44082 16.0634 4.74535C16.0693 4.40485 15.9448 4.07518 15.7158 3.82489C15.0827 3.12992 14.125 2.12992 14.4442 1.3114C14.4791 1.22426 14.5395 1.1499 14.6173 1.09818C14.6951 1.04646 14.7867 1.01983 14.8798 1.02182C17.1421 1.06275 19.5645 0.987847 21.8635 1.00175C22.1679 1.00375 22.4593 1.12629 22.675 1.34295C22.8907 1.5596 23.0133 1.85304 23.0165 2.16004L22.9958 11.1947C22.9956 11.3021 23.0286 11.407 23.0904 11.4945C23.1522 11.582 23.2396 11.6477 23.3404 11.6826C23.4411 11.7174 23.5502 11.7196 23.6522 11.6887C23.7542 11.6579 23.8441 11.5956 23.9092 11.5105C25.1893 9.83874 27.6323 6.80016 30.2996 1.69827C30.491 1.32993 30.9963 1.02646 31.4135 1.03341Z" stroke="#00AFE5" stroke-width="2" stroke-linejoin="round"/>
</svg>
